Demonstration of the fishprior R package • fishprior
…
This example provides code used to query FishBase for traits for
three species. The rfishbase package provides a flexible
approach for querying tables in FishBase, and our functions act as
wrappers for these calls.

species_list <- c(
  "Merluccius merluccius",
  "Gadus chalcogrammus",
  "Anoplopoma fimbria"
)
example_base_raw <- get_fishbase_traits(spec_names = species_list)
example_base_raw

## # A tibble: 1,437 × 22
##    rfishbase Species          SpecCode Sex   PopGrowthRef DataSourceRef Locality
##    <chr>     <chr>               <int> <chr>        <int>         <int> <chr>   
##  1 popgrowth Anoplopoma fimb…      512 fema…          312           733 Oregon  
##  2 popgrowth Anoplopoma fimb…      512 fema…          312           733 Oregon  
##  3 popgrowth Anoplopoma fimb…      512 fema…          312           733 Oregon  
##  4 popgrowth Anoplopoma fimb…      512 fema…          312           733 Oregon  
##  5 popgrowth Anoplopoma fimb…      512 male           312           733 Oregon  
##  6 popgrowth Anoplopoma fimb…      512 male           312           733 Oregon  
##  7 popgrowth Anoplopoma fimb…      512 male           312           733 Oregon  
##  8 popgrowth Anoplopoma fimb…      512 male           312           733 Oregon  
##  9 popgrowth Anoplopoma fimb…      512 unse…         5760          5818 Northea…
## 10 popgrowth Anoplopoma fimb…      512 unse…         5760          5818 Northea…
## # ℹ 1,427 more rows
## # ℹ 15 more variables: YearStart <int>, YearEnd <int>, Number <dbl>,
## #   Type <chr>, C_Code <chr>, E_CODE <dbl>, SourceRef <int>, StockCode <dbl>,
## #   AgeMatRef <int>, trait <chr>, value <dbl>, SE <dbl>, SD <dbl>,
## #   country <chr>, EcosystemName <chr>
…
cod_summary <- summarize_fishbase_traits(cod_traits)

This approach is simple because it uses all studies in FishBase to
summarize data; in practice, it may be of interest to only use studies
from a specific region. As a demonstration of how to do this, we provide
a slightly more complex example. Each of the tables returned by
get_fishbase_traits() has a Locality field,
e.g.,

cod_traits |>
  dplyr::count(Locality)

## # A tibble: 193 × 2
##    Locality                                     n
##    <chr>                                    <int>
##  1 Aberdeen Bay, 1969-1970 (INS)                4
##  2 Atlantic coast / Autumn 1992-1999.           3
##  3 Atlantic coast / Spring 1992-1999.           3
##  4 Atlantic coast / Winter 1992-1999.           3
##  5 Baltic                                       7
##  6 Baltic Sea                                   1
##  7 Baltic Sea (SD 25-32), 2016, 1st quarter     1
##  8 Baltic Sea (SD 25-32), early 1990s           1
##  9 Baltic Sea (SD 25-32), late 2000s            1
## 10 Baltic subdiv. 26                            4
## # ℹ 183 more rows
…
