Meta-analyses with the fishprior R package • fishprior
…
species_list <- c(
  "Scomber scombrus"
)
example_base_raw <- get_fishbase_traits(spec_names = species_list)
example_base_raw

## # A tibble: 285 × 22
##    rfishbase Species          SpecCode Sex   PopGrowthRef DataSourceRef Locality
##    <chr>     <chr>               <int> <chr>        <int>         <int> <chr>   
##  1 popgrowth Scomber scombrus      118 unse…          207            NA Northwe…
##  2 popgrowth Scomber scombrus      118 unse…          207            NA Northwe…
##  3 popgrowth Scomber scombrus      118 unse…          207            NA Northwe…
##  4 popgrowth Scomber scombrus      118 unse…          207            NA Northwe…
##  5 popgrowth Scomber scombrus      118 unse…          207            NA Northwe…
##  6 popgrowth Scomber scombrus      118 unse…          312          1208 ICNAF S…
##  7 popgrowth Scomber scombrus      118 unse…          312          1208 ICNAF S…
##  8 popgrowth Scomber scombrus      118 unse…          312          1208 ICNAF S…
##  9 popgrowth Scomber scombrus      118 unse…          312          1208 ICNAF S…
## 10 popgrowth Scomber scombrus      118 unse…          312          1207 New Eng…
## # ℹ 275 more rows
## # ℹ 15 more variables: YearStart <int>, YearEnd <int>, Number <dbl>,
## #   Type <chr>, C_Code <chr>, E_CODE <dbl>, SourceRef <int>, StockCode <dbl>,
## #   AgeMatRef <int>, trait <chr>, value <dbl>, SE <dbl>, SD <dbl>,
## #   country <chr>, EcosystemName <chr>
…
